1 - 1 t _ 0.000c
2 - 1 t _ 0.000c
3 - 2 t _ 0.000c
4 - 3 t _ 0.000c
5 - 5 t _ 0.000c
6 - 8 t _ 0.000c
7 - 13 t _ 0.000c
8 - 21 t _ 0.000c
9 - 34 t _ 0.000c
10 - 55 t _ 0.000c
11 - 89 t _ 0.000c
12 - 144 t _ 0.000c
13 - 233 t _ 0.000c
14 - 377 t _ 0.000c
15 - 610 t _ 0.000c
16 - 987 t _ 0.000c
17 - 1597 t _ 0.000c
18 - 2584 t _ 0.000c
19 - 4181 t _ 0.001c
20 - 6765 t _ 0.000c
21 - 10946 t _ 0.001c
22 - 17711 t _ 0.001c
23 - 28657 t _ 0.001c
24 - 46368 t _ 0.002c
25 - 75025 t _ 0.004c
26 - 121393 t _ 0.006c
27 - 196418 t _ 0.009c
28 - 317811 t _ 0.014c
29 - 514229 t _ 0.023c
30 - 832040 t _ 0.039c
31 - 1346269 t _ 0.063c
32 - 2178309 t _ 0.102c
33 - 3524578 t _ 0.164c
34 - 5702887 t _ 0.265c
35 - 9227465 t _ 0.428c
36 - 14930352 t _ 0.693c
37 - 24157817 t _ 1.122c
38 - 39088169 t _ 1.812c
39 - 63245986 t _ 2.922c
40 - 102334155 t _ 4.750c
